{
  "sdmx": {
    "datasourceIds": ["reset","stable","ILO_CAS_SUBJECT"],
    "datasources": {
      "reset":{
		"isExternal": false,
		"color": "white",
		"dataExplorerUrl": "http://localhost:7001",
		"backgroundColor": "#6A97C5"
      },
      "stable":{
	  	"isExternal": false,
		"color": "white",
		"dataExplorerUrl": "http://localhost:7001",
		"backgroundColor": "#46d676"
      },      
      "ILO_CAS_SUBJECT": {
        "isExternal": true,
        "color": "white",
		"dataExplorerUrl": "http://localhost:7001",
        "backgroundColor": "#D24A44"
      }
    },
    "typeIds": [
      "agencyscheme",
      "attachmentconstraint",
      "categoryscheme",
      "categorisation",
      "codelist",
      "conceptscheme",
      "contentconstraint",
      "dataconsumerscheme",
      "dataproviderscheme",
      "datastructure",
      "dataflow",
      "hierarchicalcodelist",
      "metadatastructure",
      "metadataflow",
      "organisationscheme",
      "organisationunitscheme",
      "process",
      "provisionagreement",
      "reportingtaxonomy",
      "structureset"
    ],
    "uploadSizeLimit": 30000000
  },
  "i18n": {
    "localeId": "en",
    "locales": {
      "en": {
        "id": "en",
        "delimiters": { "thousands": ",", "decimal": "."  },
        "timeFormat": "YYYY-MMM"
      },
      "fr": {
        "id": "fr",
        "delimiters": { "thousands": " ", "decimal": ","  },
        "timeFormat": "MMM YYYY"
      },
      "ar": {
        "id": "ar",
        "isRtl": "true",
        "delimiters": { "thousands": " ", "decimal": ","  }
      }
    }
  },
  "assets": {
    "logo": "http://localhost:5007/assets/siscc/data-lifecycle-manager/images/logo.png",
    "icon": "http://localhost:5007/assets/siscc/data-lifecycle-manager/images/sis-cc-icon.png"
  },
  "styles": "http://localhost:5007/assets/siscc/data-lifecycle-manager/styles/styles.css"
}
