{
  "sdmx": {
    "datasourceIds": ["thailand"],
    "datasources": {
	  "thailand":{
	  	"isExternal": false,
		"color": "white",
		"dataExplorerUrl": "http://thailand.de.app.siscc.org",
		"backgroundColor": "#ab5459"
      }
    },
    "typeIds": [
      "agencyscheme",
      "attachmentconstraint",
      "categoryscheme",
      "categorisation",
      "codelist",
      "conceptscheme",
      "contentconstraint",
      "dataconsumerscheme",
      "dataproviderscheme",
      "datastructure",
      "dataflow",
      "hierarchicalcodelist",
      "metadatastructure",
      "metadataflow",
      "organisationscheme",
      "organisationunitscheme",
      "process",
      "provisionagreement",
      "reportingtaxonomy",
      "structureset"
    ],
    "uploadSizeLimit": 30000000
  },
  "i18n": {
    "localeId": "en",
    "locales": {
      "en": {
        "id": "en",
        "delimiters": { "thousands": ",", "decimal": "."  },
        "timeFormat": "YYYY-MMM"
      },
      "fr": {
        "id": "fr",
        "delimiters": { "thousands": " ", "decimal": ","  },
        "timeFormat": "MMM YYYY"
      },
      "ar": {
        "id": "ar",
        "isRtl": "true",
        "delimiters": { "thousands": " ", "decimal": ","  }
      }
    }
  },
  "assets": {
    "logo": "/assets/thailand/data-lifecycle-manager/images/logo.png",
    "icon": "/assets/thailand/data-lifecycle-manager/images/sis-cc-icon.png"
  },
  "styles": "/assets/thailand/data-lifecycle-manager/styles/styles.css"
}
