{
  "app": {
    "title": "OECD Data viewer",
    "favicon": "/assets/tanzania/data-explorer/images/favicon.ico"
  },
  "ga": {},
  "share": {
    "endpoint": "http://share.app.siscc.org"
  },
  "i18n": {
    "locales": {
      "en": { "id": "en" },
      "fr": { "id": "fr" },
      "es": { "id": "es" },
      "it": { "id": "it" },
      "ar": { "id": "ar", "isRtl": "true" }
    }
  },
  "sdmx": {
    "attributes": {
      "flags": ["OBS_STATUS"],
      "footnotes": [
		"TIME_FORMAT",
		"UNIT_MEASURE",
		"UNIT_MULT",
		"NATURE",
		"TIME_DETAIL",
		"COMMENT_OBS",
		"COMMENT_TS",
		"TIME_COVERAGE",
		"UPPER_BOUND",
		"LOWER_BOUND",
		"BASE_PER",
		"SOURCE_DETAIL",
		"GEO_INFO_URL",
		"GEO_INFO_TYPE",
		"DATA_LAST_UPDATE"
	  ],
      "prefscale": ["PREF_SCALE"], 
      "decimals": ["DECIMALS"]
    }
  },
  "styles": "/assets/tanzania/data-explorer/styles/styles.css",
  "theme": {
    "table": {
      "yBg": "#B5CEEB",
      "yBgHover": "#c3d7ef",
      "yBgActive": "#7e90a4",
      "yFontHeader": "#1C2768",
      "yFont": "#43679F",
      "zBg": "#386CAA",
      "zBgHover": "#5f89bb",
      "zBgActive": "#274b76",
      "zFontHeader": "#A2C2E4",
      "zFont": "#FFFFFF",
      "xBg": "#FFFFFF",
      "xBgHeader": "#D7E6F4",
      "xBgHover": "#dfebf6",
      "xBgActive": "#96a1aa",
      "xFontHeader": "#1C2768",
      "xFont": "#43679F",
      "oFont": "#494444",
      "sBg": "#F0F0F0"
    }
  }
}